2021-10-09 16:53:56,270 INFO org.springframework.boot.StartupInfoLogger:55 [main] Starting FitEduApplication using Java 1.8.0_191 on LAPTOP-VJRTFRM5 with PID 10324 (J:\Học tập\CĐ Kĩ thuật mạng máy tính\fit edu cms\target\classes started by vutie in J:\Học tập\CĐ Kĩ thuật mạng máy tính\fit edu cms)
2021-10-09 16:53:56,271 INFO org.hibernate.validator.internal.util.Version:21 [background-preinit] HV000001: Hibernate Validator 6.2.0.Final
2021-10-09 16:53:56,275 INFO org.springframework.boot.SpringApplication:659 [main] No active profile set, falling back to default profiles: default
2021-10-09 16:53:56,358 INFO org.springframework.boot.logging.DeferredLog:255 [main] For additional web related logging consider setting the 'logging.level.web' property to 'DEBUG'
2021-10-09 16:53:57,803 INFO org.springframework.data.repository.config.RepositoryConfigurationDelegate:262 [main] Multiple Spring Data modules found, entering strict repository configuration mode!
2021-10-09 16:53:57,804 INFO org.springframework.data.repository.config.RepositoryConfigurationDelegate:132 [main] Bootstrapping Spring Data JDBC repositories in DEFAULT mode.
2021-10-09 16:53:57,868 INFO org.springframework.data.repository.config.RepositoryConfigurationExtensionSupport:349 [main] Spring Data JDBC - Could not safely identify store assignment for repository candidate interface com.example.fitedu.sys.repository.AccountRepo. If you want this repository to be a JDBC repository, consider annotating your entities with one of these annotations: org.springframework.data.relational.core.mapping.Table.
2021-10-09 16:53:57,870 INFO org.springframework.data.repository.config.RepositoryConfigurationExtensionSupport:349 [main] Spring Data JDBC - Could not safely identify store assignment for repository candidate interface com.example.fitedu.sys.repository.CoursesRepo. If you want this repository to be a JDBC repository, consider annotating your entities with one of these annotations: org.springframework.data.relational.core.mapping.Table.
2021-10-09 16:53:57,871 INFO org.springframework.data.repository.config.RepositoryConfigurationExtensionSupport:349 [main] Spring Data JDBC - Could not safely identify store assignment for repository candidate interface com.example.fitedu.sys.repository.CustomerRepo. If you want this repository to be a JDBC repository, consider annotating your entities with one of these annotations: org.springframework.data.relational.core.mapping.Table.
2021-10-09 16:53:57,873 INFO org.springframework.data.repository.config.RepositoryConfigurationDelegate:201 [main] Finished Spring Data repository scanning in 63 ms. Found 0 JDBC repository interfaces.
2021-10-09 16:53:57,883 INFO org.springframework.data.repository.config.RepositoryConfigurationDelegate:262 [main] Multiple Spring Data modules found, entering strict repository configuration mode!
2021-10-09 16:53:57,883 INFO org.springframework.data.repository.config.RepositoryConfigurationDelegate:132 [main] Bootstrapping Spring Data JPA repositories in DEFAULT mode.
2021-10-09 16:53:57,937 INFO org.springframework.data.repository.config.RepositoryConfigurationDelegate:201 [main] Finished Spring Data repository scanning in 45 ms. Found 3 JPA repository interfaces.
2021-10-09 16:53:58,441 INFO org.eclipse.jetty.util.log.Log:170 [main] Logging initialized @7351ms to org.eclipse.jetty.util.log.Slf4jLog
2021-10-09 16:53:58,628 INFO org.springframework.boot.web.embedded.jetty.JettyServletWebServerFactory:155 [main] Server initialized with port: 10701
2021-10-09 16:53:58,631 INFO org.eclipse.jetty.server.Server:375 [main] jetty-9.4.43.v20210629; built: 2021-06-30T11:07:22.254Z; git: 526006ecfa3af7f1a27ef3a288e2bef7ea9dd7e8; jvm 1.8.0_191-b12
2021-10-09 16:53:58,667 INFO org.eclipse.jetty.server.handler.ContextHandler$Context:2347 [main] Initializing Spring embedded WebApplicationContext
2021-10-09 16:53:58,668 INFO org.springframework.boot.web.servlet.context.ServletWebServerApplicationContext:290 [main] Root WebApplicationContext: initialization completed in 2308 ms
2021-10-09 16:53:58,975 INFO org.eclipse.jetty.server.session.DefaultSessionIdManager:334 [main] DefaultSessionIdManager workerName=node0
2021-10-09 16:53:58,975 INFO org.eclipse.jetty.server.session.DefaultSessionIdManager:339 [main] No SessionScavenger set, using defaults
2021-10-09 16:53:58,977 INFO org.eclipse.jetty.server.session.HouseKeeper:132 [main] node0 Scavenging every 600000ms
2021-10-09 16:53:58,988 INFO org.eclipse.jetty.server.handler.ContextHandler:915 [main] Started o.s.b.w.e.j.JettyEmbeddedWebAppContext@1cc9cfb2{application,/api,[file:///C:/Users/vutie/AppData/Local/Temp/jetty-docbase.10701.8145299628549682366/, jar:file:/C:/Users/vutie/.m2/repository/io/springfox/springfox-swagger-ui/2.9.2/springfox-swagger-ui-2.9.2.jar!/META-INF/resources],AVAILABLE}
2021-10-09 16:53:58,988 INFO org.eclipse.jetty.server.Server:415 [main] Started @7899ms
2021-10-09 16:53:59,419 INFO org.hibernate.jpa.internal.util.LogHelper:31 [main] HHH000204: Processing PersistenceUnitInfo [name: default]
2021-10-09 16:53:59,534 INFO org.hibernate.Version:44 [main] HHH000412: Hibernate ORM core version 5.4.32.Final
2021-10-09 16:53:59,866 INFO org.hibernate.annotations.common.reflection.java.JavaReflectionManager:56 [main] HCANN000001: Hibernate Commons Annotations {5.1.2.Final}
2021-10-09 16:54:00,058 INFO com.zaxxer.hikari.HikariDataSource:110 [main] HikariPool-1 - Starting...
2021-10-09 16:54:03,474 INFO com.zaxxer.hikari.HikariDataSource:123 [main] HikariPool-1 - Start completed.
2021-10-09 16:54:03,580 INFO org.hibernate.dialect.Dialect:175 [main] HHH000400: Using dialect: org.hibernate.dialect.MySQL5InnoDBDialect
2021-10-09 16:54:13,686 INFO org.hibernate.engine.transaction.jta.platform.internal.JtaPlatformInitiator:52 [main] HHH000490: Using JtaPlatform implementation: [org.hibernate.engine.transaction.jta.platform.internal.NoJtaPlatform]
2021-10-09 16:54:13,811 INFO org.springframework.orm.jpa.AbstractEntityManagerFactoryBean:437 [main] Initialized JPA EntityManagerFactory for persistence unit 'default'
2021-10-09 16:54:14,266 INFO org.ehcache.core.EhcacheManager:288 [main] Cache 'spamManager' created in EhcacheManager.
2021-10-09 16:54:16,870 INFO org.eclipse.jetty.server.AbstractConnector:331 [main] Started ServerConnector@1a5b8489{HTTP/1.1, (http/1.1)}{0.0.0.0:10701}
2021-10-09 16:54:16,871 INFO org.springframework.boot.web.embedded.jetty.JettyWebServer:172 [main] Jetty started on port(s) 10701 (http/1.1) with context path '/api'
2021-10-09 16:54:16,879 INFO org.springframework.boot.StartupInfoLogger:61 [main] Started FitEduApplication in 21.512 seconds (JVM running for 25.789)
2021-10-09 16:58:44,721 INFO org.hibernate.validator.internal.util.Version:21 [background-preinit] HV000001: Hibernate Validator 6.2.0.Final
2021-10-09 16:58:44,727 INFO org.springframework.boot.StartupInfoLogger:55 [main] Starting FitEduApplication using Java 1.8.0_191 on LAPTOP-VJRTFRM5 with PID 20048 (J:\Học tập\CĐ Kĩ thuật mạng máy tính\fit edu cms\target\classes started by vutie in J:\Học tập\CĐ Kĩ thuật mạng máy tính\fit edu cms)
2021-10-09 16:58:44,728 INFO org.springframework.boot.SpringApplication:659 [main] No active profile set, falling back to default profiles: default
2021-10-09 16:58:44,800 INFO org.springframework.boot.logging.DeferredLog:255 [main] For additional web related logging consider setting the 'logging.level.web' property to 'DEBUG'
2021-10-09 16:58:46,265 ERROR org.springframework.boot.SpringApplication:843 [main] Application run failed
java.lang.IllegalStateException: Error processing condition on org.springframework.boot.autoconfigure.context.PropertyPlaceholderAutoConfiguration.propertySourcesPlaceholderConfigurer
	at org.springframework.boot.autoconfigure.condition.SpringBootCondition.matches(SpringBootCondition.java:60)
	at org.springframework.context.annotation.ConditionEvaluator.shouldSkip(ConditionEvaluator.java:108)
	at org.springframework.context.annotation.ConfigurationClassBeanDefinitionReader.loadBeanDefinitionsForBeanMethod(ConfigurationClassBeanDefinitionReader.java:193)
	at org.springframework.context.annotation.ConfigurationClassBeanDefinitionReader.loadBeanDefinitionsForConfigurationClass(ConfigurationClassBeanDefinitionReader.java:153)
	at org.springframework.context.annotation.ConfigurationClassBeanDefinitionReader.loadBeanDefinitions(ConfigurationClassBeanDefinitionReader.java:129)
	at org.springframework.context.annotation.ConfigurationClassPostProcessor.processConfigBeanDefinitions(ConfigurationClassPostProcessor.java:343)
	at org.springframework.context.annotation.ConfigurationClassPostProcessor.postProcessBeanDefinitionRegistry(ConfigurationClassPostProcessor.java:247)
	at org.springframework.context.support.PostProcessorRegistrationDelegate.invokeBeanDefinitionRegistryPostProcessors(PostProcessorRegistrationDelegate.java:311)
	at org.springframework.context.support.PostProcessorRegistrationDelegate.invokeBeanFactoryPostProcessors(PostProcessorRegistrationDelegate.java:112)
	at org.springframework.context.support.AbstractApplicationContext.invokeBeanFactoryPostProcessors(AbstractApplicationContext.java:746)
	at org.springframework.context.support.AbstractApplicationContext.refresh(AbstractApplicationContext.java:564)
	at org.springframework.boot.web.servlet.context.ServletWebServerApplicationContext.refresh(ServletWebServerApplicationContext.java:145)
	at org.springframework.boot.SpringApplication.refresh(SpringApplication.java:754)
	at org.springframework.boot.SpringApplication.refreshContext(SpringApplication.java:434)
	at org.springframework.boot.SpringApplication.run(SpringApplication.java:338)
	at org.springframework.boot.SpringApplication.run(SpringApplication.java:1343)
	at org.springframework.boot.SpringApplication.run(SpringApplication.java:1332)
	at com.example.fitedu.FitEduApplication.main(FitEduApplication.java:10)
	at sun.reflect.NativeMethodAccessorImpl.invoke0(Native Method)
	at sun.reflect.NativeMethodAccessorImpl.invoke(NativeMethodAccessorImpl.java:62)
	at sun.reflect.DelegatingMethodAccessorImpl.invoke(DelegatingMethodAccessorImpl.java:43)
	at java.lang.reflect.Method.invoke(Method.java:498)
	at com.intellij.rt.execution.CommandLineWrapper.main(CommandLineWrapper.java:64)
Caused by: java.lang.IllegalStateException: Failed to introspect Class [springfox.documentation.swagger2.configuration.Swagger2DocumentationConfiguration] from ClassLoader [java.net.URLClassLoader@27f8302d]
	at org.springframework.util.ReflectionUtils.getDeclaredMethods(ReflectionUtils.java:481)
	at org.springframework.util.ReflectionUtils.doWithMethods(ReflectionUtils.java:358)
	at org.springframework.util.ReflectionUtils.getUniqueDeclaredMethods(ReflectionUtils.java:414)
	at org.springframework.beans.factory.support.AbstractAutowireCapableBeanFactory.lambda$getTypeForFactoryMethod$2(AbstractAutowireCapableBeanFactory.java:747)
	at java.util.concurrent.ConcurrentHashMap.computeIfAbsent(ConcurrentHashMap.java:1660)
	at org.springframework.beans.factory.support.AbstractAutowireCapableBeanFactory.getTypeForFactoryMethod(AbstractAutowireCapableBeanFactory.java:746)
	at org.springframework.beans.factory.support.AbstractAutowireCapableBeanFactory.determineTargetType(AbstractAutowireCapableBeanFactory.java:685)
	at org.springframework.beans.factory.support.AbstractAutowireCapableBeanFactory.predictBeanType(AbstractAutowireCapableBeanFactory.java:656)
	at org.springframework.beans.factory.support.AbstractBeanFactory.isFactoryBean(AbstractBeanFactory.java:1670)
	at org.springframework.beans.factory.support.DefaultListableBeanFactory.doGetBeanNamesForType(DefaultListableBeanFactory.java:570)
	at org.springframework.beans.factory.support.DefaultListableBeanFactory.getBeanNamesForType(DefaultListableBeanFactory.java:542)
	at org.springframework.boot.autoconfigure.condition.OnBeanCondition.collectBeanNamesForType(OnBeanCondition.java:238)
	at org.springframework.boot.autoconfigure.condition.OnBeanCondition.getBeanNamesForType(OnBeanCondition.java:231)
	at org.springframework.boot.autoconfigure.condition.OnBeanCondition.getBeanNamesForType(OnBeanCondition.java:221)
	at org.springframework.boot.autoconfigure.condition.OnBeanCondition.getMatchingBeans(OnBeanCondition.java:169)
	at org.springframework.boot.autoconfigure.condition.OnBeanCondition.getMatchOutcome(OnBeanCondition.java:144)
	at org.springframework.boot.autoconfigure.condition.SpringBootCondition.matches(SpringBootCondition.java:47)
	... 22 common frames omitted
Caused by: java.lang.NoClassDefFoundError: org/springframework/web/servlet/HandlerMapping
	at java.lang.Class.getDeclaredMethods0(Native Method)
	at java.lang.Class.privateGetDeclaredMethods(Class.java:2701)
	at java.lang.Class.getDeclaredMethods(Class.java:1975)
	at org.springframework.util.ReflectionUtils.getDeclaredMethods(ReflectionUtils.java:463)
	... 38 common frames omitted
Caused by: java.lang.ClassNotFoundException: org.springframework.web.servlet.HandlerMapping
	at java.net.URLClassLoader.findClass(URLClassLoader.java:382)
	at java.lang.ClassLoader.loadClass(ClassLoader.java:424)
	at java.lang.ClassLoader.loadClass(ClassLoader.java:357)
	... 42 common frames omitted
2021-10-09 16:58:46,270 WARN org.springframework.boot.SpringApplication:815 [main] Unable to close ApplicationContext
java.lang.IllegalStateException: Failed to introspect Class [springfox.documentation.swagger2.configuration.Swagger2DocumentationConfiguration] from ClassLoader [java.net.URLClassLoader@27f8302d]
	at org.springframework.util.ReflectionUtils.getDeclaredMethods(ReflectionUtils.java:481)
	at org.springframework.util.ReflectionUtils.doWithMethods(ReflectionUtils.java:358)
	at org.springframework.util.ReflectionUtils.getUniqueDeclaredMethods(ReflectionUtils.java:414)
	at org.springframework.beans.factory.support.AbstractAutowireCapableBeanFactory.lambda$getTypeForFactoryMethod$2(AbstractAutowireCapableBeanFactory.java:747)
	at java.util.concurrent.ConcurrentHashMap.computeIfAbsent(ConcurrentHashMap.java:1660)
	at org.springframework.beans.factory.support.AbstractAutowireCapableBeanFactory.getTypeForFactoryMethod(AbstractAutowireCapableBeanFactory.java:746)
	at org.springframework.beans.factory.support.AbstractAutowireCapableBeanFactory.determineTargetType(AbstractAutowireCapableBeanFactory.java:685)
	at org.springframework.beans.factory.support.AbstractAutowireCapableBeanFactory.predictBeanType(AbstractAutowireCapableBeanFactory.java:656)
	at org.springframework.beans.factory.support.AbstractBeanFactory.isFactoryBean(AbstractBeanFactory.java:1670)
	at org.springframework.beans.factory.support.DefaultListableBeanFactory.doGetBeanNamesForType(DefaultListableBeanFactory.java:570)
	at org.springframework.beans.factory.support.DefaultListableBeanFactory.getBeanNamesForType(DefaultListableBeanFactory.java:542)
	at org.springframework.beans.factory.support.DefaultListableBeanFactory.getBeansOfType(DefaultListableBeanFactory.java:667)
	at org.springframework.beans.factory.support.DefaultListableBeanFactory.getBeansOfType(DefaultListableBeanFactory.java:659)
	at org.springframework.context.support.AbstractApplicationContext.getBeansOfType(AbstractApplicationContext.java:1300)
	at org.springframework.boot.SpringApplication.getExitCodeFromMappedException(SpringApplication.java:886)
	at org.springframework.boot.SpringApplication.getExitCodeFromException(SpringApplication.java:874)
	at org.springframework.boot.SpringApplication.handleExitCode(SpringApplication.java:861)
	at org.springframework.boot.SpringApplication.handleRunFailure(SpringApplication.java:802)
	at org.springframework.boot.SpringApplication.run(SpringApplication.java:348)
	at org.springframework.boot.SpringApplication.run(SpringApplication.java:1343)
	at org.springframework.boot.SpringApplication.run(SpringApplication.java:1332)
	at com.example.fitedu.FitEduApplication.main(FitEduApplication.java:10)
	at sun.reflect.NativeMethodAccessorImpl.invoke0(Native Method)
	at sun.reflect.NativeMethodAccessorImpl.invoke(NativeMethodAccessorImpl.java:62)
	at sun.reflect.DelegatingMethodAccessorImpl.invoke(DelegatingMethodAccessorImpl.java:43)
	at java.lang.reflect.Method.invoke(Method.java:498)
	at com.intellij.rt.execution.CommandLineWrapper.main(CommandLineWrapper.java:64)
Caused by: java.lang.NoClassDefFoundError: org/springframework/web/servlet/HandlerMapping
	at java.lang.Class.getDeclaredMethods0(Native Method)
	at java.lang.Class.privateGetDeclaredMethods(Class.java:2701)
	at java.lang.Class.getDeclaredMethods(Class.java:1975)
	at org.springframework.util.ReflectionUtils.getDeclaredMethods(ReflectionUtils.java:463)
	... 26 common frames omitted
Caused by: java.lang.ClassNotFoundException: org.springframework.web.servlet.HandlerMapping
	at java.net.URLClassLoader.findClass(URLClassLoader.java:382)
	at java.lang.ClassLoader.loadClass(ClassLoader.java:424)
	at java.lang.ClassLoader.loadClass(ClassLoader.java:357)
	... 30 common frames omitted
